{
  "configVersion": 2,
  "packages": [
    {
      "name": "async",
      "rootUri": "file:///Users/artem/FlutterDev/flutter/.pub-cache/hosted/pub.dartlang.org/async-2.8.2",
      "packageUri": "lib/",
      "languageVersion": "2.12"
    },
    {
      "name": "bloc",
      "rootUri": "file:///Users/artem/FlutterDev/flutter/.pub-cache/hosted/pub.dartlang.org/bloc-8.1.1",
      "packageUri": "lib/",
      "languageVersion": "2.12"
    },
    {
      "name": "boolean_selector",
      "rootUri": "file:///Users/artem/FlutterDev/flutter/.pub-cache/hosted/pub.dartlang.org/boolean_selector-2.1.0",
      "packageUri": "lib/",
      "languageVersion": "2.12"
    },
    {
      "name": "cached_network_image",
      "rootUri": "file:///Users/artem/FlutterDev/flutter/.pub-cache/hosted/pub.dartlang.org/cached_network_image-3.2.0",
      "packageUri": "lib/",
      "languageVersion": "2.12"
    },
    {
      "name": "cached_network_image_platform_interface",
      "rootUri": "file:///Users/artem/FlutterDev/flutter/.pub-cache/hosted/pub.dartlang.org/cached_network_image_platform_interface-1.0.0",
      "packageUri": "lib/",
      "languageVersion": "2.12"
    },
    {
      "name": "cached_network_image_web",
      "rootUri": "file:///Users/artem/FlutterDev/flutter/.pub-cache/hosted/pub.dartlang.org/cached_network_image_web-1.0.1",
      "packageUri": "lib/",
      "languageVersion": "2.12"
    },
    {
      "name": "characters",
      "rootUri": "file:///Users/artem/FlutterDev/flutter/.pub-cache/hosted/pub.dartlang.org/characters-1.2.0",
      "packageUri": "lib/",
      "languageVersion": "2.12"
    },
    {
      "name": "charcode",
      "rootUri": "file:///Users/artem/FlutterDev/flutter/.pub-cache/hosted/pub.dartlang.org/charcode-1.3.1",
      "packageUri": "lib/",
      "languageVersion": "2.12"
    },
    {
      "name": "clock",
      "rootUri": "file:///Users/artem/FlutterDev/flutter/.pub-cache/hosted/pub.dartlang.org/clock-1.1.0",
      "packageUri": "lib/",
      "languageVersion": "2.12"
    },
    {
      "name": "collection",
      "rootUri": "file:///Users/artem/FlutterDev/flutter/.pub-cache/hosted/pub.dartlang.org/collection-1.15.0",
      "packageUri": "lib/",
      "languageVersion": "2.12"
    },
    {
      "name": "crypto",
      "rootUri": "file:///Users/artem/FlutterDev/flutter/.pub-cache/hosted/pub.dartlang.org/crypto-3.0.2",
      "packageUri": "lib/",
      "languageVersion": "2.14"
    },
    {
      "name": "cupertino_icons",
      "rootUri": "file:///Users/artem/FlutterDev/flutter/.pub-cache/hosted/pub.dartlang.org/cupertino_icons-1.0.5",
      "packageUri": "lib/",
      "languageVersion": "2.12"
    },
    {
      "name": "dio",
      "rootUri": "file:///Users/artem/FlutterDev/flutter/.pub-cache/hosted/pub.dartlang.org/dio-5.0.1",
      "packageUri": "lib/",
      "languageVersion": "2.15"
    },
    {
      "name": "equatable",
      "rootUri": "file:///Users/artem/FlutterDev/flutter/.pub-cache/hosted/pub.dartlang.org/equatable-2.0.5",
      "packageUri": "lib/",
      "languageVersion": "2.12"
    },
    {
      "name": "fake_async",
      "rootUri": "file:///Users/artem/FlutterDev/flutter/.pub-cache/hosted/pub.dartlang.org/fake_async-1.2.0",
      "packageUri": "lib/",
      "languageVersion": "2.12"
    },
    {
      "name": "ffi",
      "rootUri": "file:///Users/artem/FlutterDev/flutter/.pub-cache/hosted/pub.dartlang.org/ffi-1.2.1",
      "packageUri": "lib/",
      "languageVersion": "2.12"
    },
    {
      "name": "file",
      "rootUri": "file:///Users/artem/FlutterDev/flutter/.pub-cache/hosted/pub.dartlang.org/file-6.1.4",
      "packageUri": "lib/",
      "languageVersion": "2.12"
    },
    {
      "name": "fl_chart",
      "rootUri": "file:///Users/artem/FlutterDev/flutter/.pub-cache/hosted/pub.dartlang.org/fl_chart-0.55.2",
      "packageUri": "lib/",
      "languageVersion": "2.12"
    },
    {
      "name": "flutter",
      "rootUri": "file:///Users/artem/FlutterDev/flutter/packages/flutter",
      "packageUri": "lib/",
      "languageVersion": "2.12"
    },
    {
      "name": "flutter_bloc",
      "rootUri": "file:///Users/artem/FlutterDev/flutter/.pub-cache/hosted/pub.dartlang.org/flutter_bloc-8.1.2",
      "packageUri": "lib/",
      "languageVersion": "2.12"
    },
    {
      "name": "flutter_blurhash",
      "rootUri": "file:///Users/artem/FlutterDev/flutter/.pub-cache/hosted/pub.dartlang.org/flutter_blurhash-0.7.0",
      "packageUri": "lib/",
      "languageVersion": "2.15"
    },
    {
      "name": "flutter_cache_manager",
      "rootUri": "file:///Users/artem/FlutterDev/flutter/.pub-cache/hosted/pub.dartlang.org/flutter_cache_manager-3.3.0",
      "packageUri": "lib/",
      "languageVersion": "2.12"
    },
    {
      "name": "flutter_lints",
      "rootUri": "file:///Users/artem/FlutterDev/flutter/.pub-cache/hosted/pub.dartlang.org/flutter_lints-1.0.4",
      "packageUri": "lib/",
      "languageVersion": "2.12"
    },
    {
      "name": "flutter_svg",
      "rootUri": "file:///Users/artem/FlutterDev/flutter/.pub-cache/hosted/pub.dartlang.org/flutter_svg-1.0.3",
      "packageUri": "lib/",
      "languageVersion": "2.12"
    },
    {
      "name": "flutter_test",
      "rootUri": "file:///Users/artem/FlutterDev/flutter/packages/flutter_test",
      "packageUri": "lib/",
      "languageVersion": "2.12"
    },
    {
      "name": "flutter_web_plugins",
      "rootUri": "file:///Users/artem/FlutterDev/flutter/packages/flutter_web_plugins",
      "packageUri": "lib/",
      "languageVersion": "2.12"
    },
    {
      "name": "geolocator",
      "rootUri": "file:///Users/artem/FlutterDev/flutter/.pub-cache/hosted/pub.dartlang.org/geolocator-8.2.1",
      "packageUri": "lib/",
      "languageVersion": "2.12"
    },
    {
      "name": "geolocator_android",
      "rootUri": "file:///Users/artem/FlutterDev/flutter/.pub-cache/hosted/pub.dartlang.org/geolocator_android-3.1.8",
      "packageUri": "lib/",
      "languageVersion": "2.12"
    },
    {
      "name": "geolocator_apple",
      "rootUri": "file:///Users/artem/FlutterDev/flutter/.pub-cache/hosted/pub.dartlang.org/geolocator_apple-2.2.5",
      "packageUri": "lib/",
      "languageVersion": "2.15"
    },
    {
      "name": "geolocator_platform_interface",
      "rootUri": "file:///Users/artem/FlutterDev/flutter/.pub-cache/hosted/pub.dartlang.org/geolocator_platform_interface-4.0.7",
      "packageUri": "lib/",
      "languageVersion": "2.15"
    },
    {
      "name": "geolocator_web",
      "rootUri": "file:///Users/artem/FlutterDev/flutter/.pub-cache/hosted/pub.dartlang.org/geolocator_web-2.1.6",
      "packageUri": "lib/",
      "languageVersion": "2.15"
    },
    {
      "name": "geolocator_windows",
      "rootUri": "file:///Users/artem/FlutterDev/flutter/.pub-cache/hosted/pub.dartlang.org/geolocator_windows-0.1.1",
      "packageUri": "lib/",
      "languageVersion": "2.15"
    },
    {
      "name": "http",
      "rootUri": "file:///Users/artem/FlutterDev/flutter/.pub-cache/hosted/pub.dartlang.org/http-0.13.5",
      "packageUri": "lib/",
      "languageVersion": "2.14"
    },
    {
      "name": "http_parser",
      "rootUri": "file:///Users/artem/FlutterDev/flutter/.pub-cache/hosted/pub.dartlang.org/http_parser-4.0.2",
      "packageUri": "lib/",
      "languageVersion": "2.12"
    },
    {
      "name": "intl",
      "rootUri": "file:///Users/artem/FlutterDev/flutter/.pub-cache/hosted/pub.dartlang.org/intl-0.17.0",
      "packageUri": "lib/",
      "languageVersion": "2.12"
    },
    {
      "name": "js",
      "rootUri": "file:///Users/artem/FlutterDev/flutter/.pub-cache/hosted/pub.dartlang.org/js-0.6.3",
      "packageUri": "lib/",
      "languageVersion": "2.12"
    },
    {
      "name": "lints",
      "rootUri": "file:///Users/artem/FlutterDev/flutter/.pub-cache/hosted/pub.dartlang.org/lints-1.0.1",
      "packageUri": "lib/",
      "languageVersion": "2.12"
    },
    {
      "name": "location",
      "rootUri": "file:///Users/artem/FlutterDev/flutter/.pub-cache/hosted/pub.dartlang.org/location-4.4.0",
      "packageUri": "lib/",
      "languageVersion": "2.12"
    },
    {
      "name": "location_platform_interface",
      "rootUri": "file:///Users/artem/FlutterDev/flutter/.pub-cache/hosted/pub.dartlang.org/location_platform_interface-2.3.0",
      "packageUri": "lib/",
      "languageVersion": "2.12"
    },
    {
      "name": "location_web",
      "rootUri": "file:///Users/artem/FlutterDev/flutter/.pub-cache/hosted/pub.dartlang.org/location_web-3.1.1",
      "packageUri": "lib/",
      "languageVersion": "2.12"
    },
    {
      "name": "matcher",
      "rootUri": "file:///Users/artem/FlutterDev/flutter/.pub-cache/hosted/pub.dartlang.org/matcher-0.12.11",
      "packageUri": "lib/",
      "languageVersion": "2.12"
    },
    {
      "name": "material_color_utilities",
      "rootUri": "file:///Users/artem/FlutterDev/flutter/.pub-cache/hosted/pub.dartlang.org/material_color_utilities-0.1.3",
      "packageUri": "lib/",
      "languageVersion": "2.13"
    },
    {
      "name": "meta",
      "rootUri": "file:///Users/artem/FlutterDev/flutter/.pub-cache/hosted/pub.dartlang.org/meta-1.7.0",
      "packageUri": "lib/",
      "languageVersion": "2.12"
    },
    {
      "name": "nested",
      "rootUri": "file:///Users/artem/FlutterDev/flutter/.pub-cache/hosted/pub.dartlang.org/nested-1.0.0",
      "packageUri": "lib/",
      "languageVersion": "2.12"
    },
    {
      "name": "octo_image",
      "rootUri": "file:///Users/artem/FlutterDev/flutter/.pub-cache/hosted/pub.dartlang.org/octo_image-1.0.2",
      "packageUri": "lib/",
      "languageVersion": "2.12"
    },
    {
      "name": "path",
      "rootUri": "file:///Users/artem/FlutterDev/flutter/.pub-cache/hosted/pub.dartlang.org/path-1.8.0",
      "packageUri": "lib/",
      "languageVersion": "2.12"
    },
    {
      "name": "path_drawing",
      "rootUri": "file:///Users/artem/FlutterDev/flutter/.pub-cache/hosted/pub.dartlang.org/path_drawing-1.0.1",
      "packageUri": "lib/",
      "languageVersion": "2.12"
    },
    {
      "name": "path_parsing",
      "rootUri": "file:///Users/artem/FlutterDev/flutter/.pub-cache/hosted/pub.dartlang.org/path_parsing-1.0.1",
      "packageUri": "lib/",
      "languageVersion": "2.12"
    },
    {
      "name": "path_provider",
      "rootUri": "file:///Users/artem/FlutterDev/flutter/.pub-cache/hosted/pub.dartlang.org/path_provider-2.0.11",
      "packageUri": "lib/",
      "languageVersion": "2.14"
    },
    {
      "name": "path_provider_android",
      "rootUri": "file:///Users/artem/FlutterDev/flutter/.pub-cache/hosted/pub.dartlang.org/path_provider_android-2.0.22",
      "packageUri": "lib/",
      "languageVersion": "2.14"
    },
    {
      "name": "path_provider_ios",
      "rootUri": "file:///Users/artem/FlutterDev/flutter/.pub-cache/hosted/pub.dartlang.org/path_provider_ios-2.0.11",
      "packageUri": "lib/",
      "languageVersion": "2.14"
    },
    {
      "name": "path_provider_linux",
      "rootUri": "file:///Users/artem/FlutterDev/flutter/.pub-cache/hosted/pub.dartlang.org/path_provider_linux-2.1.7",
      "packageUri": "lib/",
      "languageVersion": "2.12"
    },
    {
      "name": "path_provider_macos",
      "rootUri": "file:///Users/artem/FlutterDev/flutter/.pub-cache/hosted/pub.dartlang.org/path_provider_macos-2.0.7",
      "packageUri": "lib/",
      "languageVersion": "2.12"
    },
    {
      "name": "path_provider_platform_interface",
      "rootUri": "file:///Users/artem/FlutterDev/flutter/.pub-cache/hosted/pub.dartlang.org/path_provider_platform_interface-2.0.5",
      "packageUri": "lib/",
      "languageVersion": "2.12"
    },
    {
      "name": "path_provider_windows",
      "rootUri": "file:///Users/artem/FlutterDev/flutter/.pub-cache/hosted/pub.dartlang.org/path_provider_windows-2.0.7",
      "packageUri": "lib/",
      "languageVersion": "2.12"
    },
    {
      "name": "pedantic",
      "rootUri": "file:///Users/artem/FlutterDev/flutter/.pub-cache/hosted/pub.dartlang.org/pedantic-1.11.1",
      "packageUri": "lib/",
      "languageVersion": "2.12"
    },
    {
      "name": "petitparser",
      "rootUri": "file:///Users/artem/FlutterDev/flutter/.pub-cache/hosted/pub.dartlang.org/petitparser-4.4.0",
      "packageUri": "lib/",
      "languageVersion": "2.14"
    },
    {
      "name": "platform",
      "rootUri": "file:///Users/artem/FlutterDev/flutter/.pub-cache/hosted/pub.dartlang.org/platform-3.1.0",
      "packageUri": "lib/",
      "languageVersion": "2.12"
    },
    {
      "name": "plugin_platform_interface",
      "rootUri": "file:///Users/artem/FlutterDev/flutter/.pub-cache/hosted/pub.dartlang.org/plugin_platform_interface-2.1.3",
      "packageUri": "lib/",
      "languageVersion": "2.12"
    },
    {
      "name": "process",
      "rootUri": "file:///Users/artem/FlutterDev/flutter/.pub-cache/hosted/pub.dartlang.org/process-4.2.4",
      "packageUri": "lib/",
      "languageVersion": "2.14"
    },
    {
      "name": "provider",
      "rootUri": "file:///Users/artem/FlutterDev/flutter/.pub-cache/hosted/pub.dartlang.org/provider-6.0.5",
      "packageUri": "lib/",
      "languageVersion": "2.12"
    },
    {
      "name": "rxdart",
      "rootUri": "file:///Users/artem/FlutterDev/flutter/.pub-cache/hosted/pub.dartlang.org/rxdart-0.27.7",
      "packageUri": "lib/",
      "languageVersion": "2.12"
    },
    {
      "name": "shared_preferences",
      "rootUri": "file:///Users/artem/FlutterDev/flutter/.pub-cache/hosted/pub.dartlang.org/shared_preferences-2.0.17",
      "packageUri": "lib/",
      "languageVersion": "2.14"
    },
    {
      "name": "shared_preferences_android",
      "rootUri": "file:///Users/artem/FlutterDev/flutter/.pub-cache/hosted/pub.dartlang.org/shared_preferences_android-2.0.15",
      "packageUri": "lib/",
      "languageVersion": "2.14"
    },
    {
      "name": "shared_preferences_foundation",
      "rootUri": "file:///Users/artem/FlutterDev/flutter/.pub-cache/hosted/pub.dartlang.org/shared_preferences_foundation-2.1.2",
      "packageUri": "lib/",
      "languageVersion": "2.12"
    },
    {
      "name": "shared_preferences_linux",
      "rootUri": "file:///Users/artem/FlutterDev/flutter/.pub-cache/hosted/pub.dartlang.org/shared_preferences_linux-2.1.3",
      "packageUri": "lib/",
      "languageVersion": "2.12"
    },
    {
      "name": "shared_preferences_platform_interface",
      "rootUri": "file:///Users/artem/FlutterDev/flutter/.pub-cache/hosted/pub.dartlang.org/shared_preferences_platform_interface-2.1.0",
      "packageUri": "lib/",
      "languageVersion": "2.12"
    },
    {
      "name": "shared_preferences_web",
      "rootUri": "file:///Users/artem/FlutterDev/flutter/.pub-cache/hosted/pub.dartlang.org/shared_preferences_web-2.0.4",
      "packageUri": "lib/",
      "languageVersion": "2.12"
    },
    {
      "name": "shared_preferences_windows",
      "rootUri": "file:///Users/artem/FlutterDev/flutter/.pub-cache/hosted/pub.dartlang.org/shared_preferences_windows-2.1.3",
      "packageUri": "lib/",
      "languageVersion": "2.12"
    },
    {
      "name": "sky_engine",
      "rootUri": "file:///Users/artem/FlutterDev/flutter/bin/cache/pkg/sky_engine",
      "packageUri": "lib/",
      "languageVersion": "2.12"
    },
    {
      "name": "smooth_page_indicator",
      "rootUri": "file:///Users/artem/FlutterDev/flutter/.pub-cache/hosted/pub.dartlang.org/smooth_page_indicator-1.0.1",
      "packageUri": "lib/",
      "languageVersion": "2.12"
    },
    {
      "name": "source_span",
      "rootUri": "file:///Users/artem/FlutterDev/flutter/.pub-cache/hosted/pub.dartlang.org/source_span-1.8.1",
      "packageUri": "lib/",
      "languageVersion": "2.12"
    },
    {
      "name": "sqflite",
      "rootUri": "file:///Users/artem/FlutterDev/flutter/.pub-cache/hosted/pub.dartlang.org/sqflite-2.0.2+1",
      "packageUri": "lib/",
      "languageVersion": "2.16"
    },
    {
      "name": "sqflite_common",
      "rootUri": "file:///Users/artem/FlutterDev/flutter/.pub-cache/hosted/pub.dartlang.org/sqflite_common-2.4.0",
      "packageUri": "lib/",
      "languageVersion": "2.16"
    },
    {
      "name": "stack_trace",
      "rootUri": "file:///Users/artem/FlutterDev/flutter/.pub-cache/hosted/pub.dartlang.org/stack_trace-1.10.0",
      "packageUri": "lib/",
      "languageVersion": "2.12"
    },
    {
      "name": "stream_channel",
      "rootUri": "file:///Users/artem/FlutterDev/flutter/.pub-cache/hosted/pub.dartlang.org/stream_channel-2.1.0",
      "packageUri": "lib/",
      "languageVersion": "2.12"
    },
    {
      "name": "string_scanner",
      "rootUri": "file:///Users/artem/FlutterDev/flutter/.pub-cache/hosted/pub.dartlang.org/string_scanner-1.1.0",
      "packageUri": "lib/",
      "languageVersion": "2.12"
    },
    {
      "name": "synchronized",
      "rootUri": "file:///Users/artem/FlutterDev/flutter/.pub-cache/hosted/pub.dartlang.org/synchronized-3.0.0+3",
      "packageUri": "lib/",
      "languageVersion": "2.14"
    },
    {
      "name": "term_glyph",
      "rootUri": "file:///Users/artem/FlutterDev/flutter/.pub-cache/hosted/pub.dartlang.org/term_glyph-1.2.0",
      "packageUri": "lib/",
      "languageVersion": "2.12"
    },
    {
      "name": "test_api",
      "rootUri": "file:///Users/artem/FlutterDev/flutter/.pub-cache/hosted/pub.dartlang.org/test_api-0.4.8",
      "packageUri": "lib/",
      "languageVersion": "2.12"
    },
    {
      "name": "typed_data",
      "rootUri": "file:///Users/artem/FlutterDev/flutter/.pub-cache/hosted/pub.dartlang.org/typed_data-1.3.0",
      "packageUri": "lib/",
      "languageVersion": "2.12"
    },
    {
      "name": "uuid",
      "rootUri": "file:///Users/artem/FlutterDev/flutter/.pub-cache/hosted/pub.dartlang.org/uuid-3.0.7",
      "packageUri": "lib/",
      "languageVersion": "2.12"
    },
    {
      "name": "vector_math",
      "rootUri": "file:///Users/artem/FlutterDev/flutter/.pub-cache/hosted/pub.dartlang.org/vector_math-2.1.1",
      "packageUri": "lib/",
      "languageVersion": "2.14"
    },
    {
      "name": "win32",
      "rootUri": "file:///Users/artem/FlutterDev/flutter/.pub-cache/hosted/pub.dartlang.org/win32-2.5.2",
      "packageUri": "lib/",
      "languageVersion": "2.15"
    },
    {
      "name": "xdg_directories",
      "rootUri": "file:///Users/artem/FlutterDev/flutter/.pub-cache/hosted/pub.dartlang.org/xdg_directories-0.2.0+3",
      "packageUri": "lib/",
      "languageVersion": "2.12"
    },
    {
      "name": "xml",
      "rootUri": "file:///Users/artem/FlutterDev/flutter/.pub-cache/hosted/pub.dartlang.org/xml-5.3.1",
      "packageUri": "lib/",
      "languageVersion": "2.14"
    },
    {
      "name": "greenhouse",
      "rootUri": "../",
      "packageUri": "lib/",
      "languageVersion": "2.16"
    }
  ],
  "generated": "2024-12-04T21:05:23.541915Z",
  "generator": "pub",
  "generatorVersion": "2.16.2"
}
